<svg width="69" height="56" viewBox="0 0 69 56" fill="none" xmlns="http://www.w3.org/2000/svg">
<path fill-rule="evenodd" clip-rule="evenodd" d="M7.12574 55.7099C5.40704 55.6346 3.68893 55.7908 1.97011 55.7434C1.58474 55.7325 1.19936 55.7263 0.829063 55.616C0.279439 55.4521 -0.04062 54.9475 0.00415272 54.3683C0.221009 51.5473 0.544869 48.7379 0.874311 45.928C1.04129 44.5059 0.963737 43.0572 1.07228 41.6266C1.1724 40.308 1.34056 38.9943 1.56312 37.6868C1.86988 35.8854 2.50062 34.1741 2.98433 32.4224C3.67195 29.933 4.20483 27.4151 4.54163 24.8572C4.74756 23.2922 5.11928 21.7809 5.83577 20.359C6.03398 19.9658 6.32696 19.4867 6.24157 19.1245C6.16271 18.7902 5.63672 18.5568 5.30384 18.2836C4.36124 17.5094 3.80556 16.484 3.36139 15.3822C2.52757 13.3153 2.10752 11.1621 2.21523 8.94699C2.32497 6.69073 2.82519 4.50216 4.02883 2.54384C4.73426 1.39578 5.6999 0.488785 7.05805 0.131957C8.75098 -0.313137 10.0502 0.415092 11.1465 1.60581C12.4868 3.06098 13.0812 4.84876 13.4104 6.74585C13.4243 6.82659 13.4666 6.90663 13.4623 6.98526C13.3959 8.20736 14.0425 8.86166 15.1526 9.27691C15.8411 9.53454 15.7259 10.2614 14.9528 10.6921C14.2964 11.0578 13.8013 11.5204 13.7175 12.3058C13.6531 12.9131 13.4677 13.4935 13.3208 14.0836C12.9746 15.4744 12.425 16.771 11.4852 17.869C11.0852 18.3362 10.6709 18.8226 10.0519 19.0454C9.80367 19.1348 9.76009 19.2592 9.84144 19.5358C10.2501 20.9251 10.8956 22.1911 11.6353 23.4388C12.6574 25.163 13.4895 26.986 14.1426 28.8899C14.6632 30.4072 15.3457 31.8705 15.8542 33.3917C16.4995 35.3218 16.9824 37.3023 17.4688 39.2782C17.8483 40.8191 18.1193 42.3897 18.5685 43.9092C18.9378 45.1577 19.4431 46.3728 20.0063 47.5553C20.3567 48.2907 21.0531 48.403 21.7656 48.4771C22.9203 48.5965 23.8532 48.274 24.9272 47.6726C25.3405 47.441 25.7809 47.2269 26.207 46.9996C27.9416 46.0746 29.6368 45.0827 31.3035 44.0421C32.7602 43.2005 33.829 42.6521 35.2344 41.9664C37.448 40.8043 39.807 39.7133 42.0249 38.5594C42.7925 38.1602 43.551 37.7394 44.3864 37.4839C45.2266 37.2268 45.9528 37.4597 46.5442 38.0535C47.8437 39.3586 49.0544 40.7375 50.166 42.21C50.9918 43.3046 51.9393 44.314 52.8771 45.3204C54.4498 47.0065 55.742 48.9532 57.5021 50.4529C58.7801 51.5417 60.1256 52.5954 61.8375 53.035C63.1285 53.3667 64.3697 53.8997 65.6996 54.0736C66.506 54.1791 67.3286 54.2002 68.1436 54.1945C68.7005 54.1906 68.9833 54.3413 68.9997 54.8138C69.0136 55.2207 68.5424 55.7428 68.1362 55.6782C67.0495 55.5054 66.0078 55.7517 64.9559 55.9309C64.3707 56.0308 63.7834 55.9871 63.212 55.8709C62.6055 55.7476 62.0007 55.6469 61.3843 55.583C60.783 55.5208 60.2228 55.5996 59.6711 55.8317C58.5116 56.3199 57.4278 55.71 57.4352 54.4695C57.4413 53.3916 56.982 52.7037 56.183 52.0318C54.9115 50.9629 53.5334 50.0371 52.251 48.9907C50.8644 47.8586 49.3465 46.8734 48.1406 45.5351C47.4061 44.7197 46.8581 43.7647 46.2206 42.8767C45.9595 42.5126 45.7162 42.1356 45.456 41.7708C45.1204 41.3017 44.6105 41.2212 44.1712 41.5812C42.999 42.541 41.853 43.5279 40.75 44.5677C40.099 45.1809 39.3175 45.6521 38.5893 46.1751C37.6825 46.8257 36.8573 47.5814 35.9157 48.1811C33.853 49.4948 32.0485 51.1648 29.9083 52.3769C28.8065 53.001 27.6559 53.5984 26.5552 54.2192C26.007 54.5285 25.4796 54.813 24.9298 55.1248C23.8134 55.7594 22.5968 55.9673 21.322 55.9548C20.2517 55.9439 19.1818 55.9613 18.1316 55.7118C15.9227 55.1868 14.6347 53.6903 13.9988 51.6487C13.5275 50.1356 13.2717 48.5582 12.8941 47.0156C12.3121 44.6378 11.6656 42.2855 10.7681 39.9917C9.88372 37.7309 8.791 35.5799 7.60494 33.4767C7.20032 32.7593 7.30091 32.4385 7.56242 31.5972C8.13414 30.066 8.59576 28.4454 8.82224 26.8139C8.85311 26.5916 8.89789 26.3298 8.61666 26.2858C8.32605 26.2403 8.30468 26.5095 8.27974 26.7273C8.1535 27.8349 7.80101 28.888 7.46373 29.9421C6.97599 31.4675 6.54548 33.0116 5.96818 34.5081C5.60525 35.4485 5.25669 36.3965 4.83913 37.313C4.62845 37.7761 4.49662 38.242 4.44211 38.7344C4.18975 41.0207 3.89296 43.3059 3.40688 45.5502C2.97981 47.5227 2.86414 49.5536 2.23032 51.4852C2.11892 51.8255 2.0827 52.1986 2.07094 52.5586C2.05823 52.9405 2.37663 53.0836 2.68422 53.1738C3.16401 53.3141 3.69107 53.3469 4.13215 53.5592C5.82923 54.3753 7.62905 54.7547 9.48836 54.9298C9.58492 54.9388 9.68384 54.9772 9.77066 55.0229C9.95272 55.1184 10.1444 55.2482 10.0893 55.4747C10.0398 55.6778 9.81959 55.7065 9.63301 55.7077C8.79706 55.7131 7.96158 55.7099 7.12574 55.7099ZM6.4652 10.6477C6.41365 11.4107 6.56104 12.4269 6.67338 13.445C6.8305 14.8711 7.01589 16.2931 7.4863 17.6595C7.59603 17.9782 7.80672 18.1514 8.18473 18.19C9.20464 18.2939 9.8836 17.7396 10.4183 17.0269C11.5092 15.5735 12.1123 13.9051 12.3893 12.122C12.5001 11.4094 12.6664 10.7255 13.2043 10.1975C13.3478 10.0564 13.3535 9.94837 13.1955 9.84247C12.4333 9.33097 12.2772 8.53363 12.2016 7.71902C12.0541 6.12857 11.5647 4.6553 10.7258 3.29628C10.169 2.39434 9.4601 1.6835 8.34482 1.48134C7.95695 1.41118 7.69092 1.48276 7.56361 1.87179C7.45103 2.21533 7.31065 2.55371 7.2369 2.90537C6.71982 5.37049 6.45427 7.86217 6.4652 10.6477Z" fill="#1A1A1A"/>
<path fill-rule="evenodd" clip-rule="evenodd" d="M6.46518 10.6481C6.45438 7.86259 6.71981 5.37091 7.23677 2.9059C7.31052 2.55425 7.4509 2.21587 7.56348 1.87232C7.69079 1.48317 7.95682 1.41171 8.34469 1.48188C9.45997 1.68415 10.1688 2.39499 10.7257 3.29681C11.5645 4.65584 12.0539 6.12911 12.2014 7.71955C12.2771 8.53417 12.4331 9.33151 13.1953 9.84301C13.3535 9.9489 13.3478 10.0569 13.2041 10.1981C12.6663 10.7259 12.4999 11.4098 12.3892 12.1225C12.1121 13.9056 11.5091 15.574 10.4181 17.0274C9.88358 17.74 9.20451 18.2944 8.1846 18.1905C7.80658 18.1518 7.5959 17.9787 7.48617 17.6601C7.01576 16.2936 6.83049 14.8715 6.67325 13.4455C6.56102 12.4273 6.41364 11.411 6.46518 10.6481Z" fill="#1A1A1A"/>
</svg>
