<?xml version="1.0" encoding="utf-8"?>
<!-- (c) Yogapage 2016 / Designed by Gax -->
<!DOCTYPE svg PUBLIC "-//W3C//DTD SVG 1.1//EN" "http://www.w3.org/Graphics/SVG/1.1/DTD/svg11.dtd">
<svg version="1.1" id="Layer_1" xmlns="http://www.w3.org/2000/svg" xmlns:xlink="http://www.w3.org/1999/xlink" x="0px" y="0px"
	 width="1174px" height="269.157px" viewBox="0 0 1174 269.157" enable-background="new 0 0 1174 269.157" xml:space="preserve">
<path fill-rule="evenodd" clip-rule="evenodd" d="M0,167.775c10.873-9.025,23.33-14.731,37.11-17.602
	c7.977-1.661,15.265-5.023,22.477-8.654c5.812-2.925,11.445-6.271,17.79-8.018c7.29-2.009,13.819-0.496,18.189,5.702
	c4.312,6.11,9.956,8.223,17.029,9.49c28.484,5.111,56.646,11.752,84.595,19.278c10.93,2.945,22.339,3.716,33.143,7.282
	c14.371,4.742,28.871,9.223,41.958,17.038c9.045,5.4,19.188,5.798,29.135,7.337c13.863,2.146,27.945,2.177,41.785,4.201
	c18.36,2.684,36.748,5.611,54.361,11.793c14.373,5.048,29.186,8.621,43.636,13.491c10.796,3.642,22.569,1.62,33.574-1.997
	c12.208-4.012,24.221-8.654,36.542-12.262c18.644-5.462,37.483-5.761,56.679-2c11.243,2.2,22.082,5.862,33.357,7.822
	c8.827,1.531,17.54,0.995,26.371,0.166c15.343-1.44,28.901-8.95,43.66-12.289c21.249-4.803,41.896-11.6,61.315-21.354
	c12.652-6.354,25.835-11.552,38.263-18.358c12.252-6.712,24.673-13.148,37.879-17.85c3.017-1.076,4.358-2.558,4.093-6.063
	c-0.927-12.286,3.271-23.532,7.941-34.551c6.002-14.162,14.239-27.079,24.952-38.025c13.277-13.571,28.49-24.758,46.91-30.471
	c8.705-2.7,17.662-3.339,26.81-0.621c13.937,4.139,20.499,13.887,22.455,27.505c2.105,14.682-1.61,28.309-7.866,41.439
	c-3.173,6.655-6.808,13.024-11.301,18.88c-2.32,3.025-1.977,6.184-0.551,9.431c1.118,2.537,2.297,5.054,3.234,7.656
	c1.457,4.059-0.248,6.467-4.464,7.499c-3.685,0.904-7.174-0.221-10.692-0.547c-3.817-0.356-6.726,0.897-9.511,3.078
	c-9.836,7.693-19.914,14.976-31.541,19.846c-8.678,3.635-17.754,4.97-27.054,4.725c-2.935-0.074-5.648-2.044-9.116-1.596
	c8.746,5.04,12.54,14.904,20.274,20.553c8.6,6.277,18.213,11.202,27.513,16.483c11.474,6.512,22.108,14.32,33.382,21.154
	c9.803,5.938,19.859,9.396,31.344,9.663c19.3,0.452,38.589,1.651,57.882,2.259c12.602,0.397,25.243,1.739,37.896,0.469
	c3.669-0.366,6.852-2.153,10.411-2.829c11.688-2.211,22.984-2.041,34.336,2.442c9.538,3.767,19.64,5.995,29.958,6.793
	c0.829,0.062,1.675,0.177,2.463,0.425c2.065,0.655,5.743,0.336,5.329,3.07c-0.425,2.789-1.158,6.331-5.717,7.018
	c-12.152,1.82-24.238,1.42-36.476,1.005c-22.765-0.764-45.553-2.323-68.357-0.594c-13.586,1.029-27.176,0.968-40.803,0.17
	c-10.648-0.622-21.368-0.646-32.034-0.255c-14.663,0.536-28.144-2.697-39.984-11.399c-5.866-4.31-12.408-7.34-18.549-11.1
	c-15.988-9.779-32.503-18.62-48.84-27.778c-1.091-0.611-2.134-1.562-3.295-1.749c-10.522-1.708-20.821-4.81-31.636-4.7
	c-11.892,0.118-22.754,4.449-33.553,8.478c-20.691,7.721-42.138,13.264-62.423,22.136c-18.069,7.9-36.052,16.012-54.434,23.202
	c-8.003,3.132-16.256,4.272-24.64,4.518c-11.113,0.322-22.244,0.193-33.359-0.506c-6.504-0.411-13.018,0.058-19.529,0.241
	c-8.312,0.23-16.653-0.687-24.97-0.527c-18.608,0.351-37.215,0.041-55.828,0.486c-22.773,0.54-45.61,1.62-68.35-0.343
	c-30.892-2.67-60.417-11.247-88.942-23.02c-11.07-4.568-21.922-9.955-31.789-17.071c-6.435-4.64-14.293-5.896-21.901-7.455
	c-7.146-1.468-13.94-3.74-19.739-8.302c-5.588-4.392-12.022-6.786-18.794-8.542c-22.261-5.774-44.988-9.67-66.943-16.688
	c-16.633-5.316-33.095-11.179-50.078-15.397c-6.146-1.528-12.393-0.988-18.564-1.882c-7.54-1.09-15.21-1.297-22.825-1.864
	c-7.146-0.53-14.035,1.155-20.96,2.507c-8.456,1.647-17.102,1.28-25.617,2.354c-3.656,0.462-6.946,1.817-10.305,3.152
	c-8.276,3.284-16.557,4.46-24.699-0.469C0,172.781,0,170.278,0,167.775z M930.779,76.051c0.336-6.488-1.902-11.401-4.993-16.197
	c-2.404-3.733-4.993-3.64-8.386-1.858c-4.327,2.269-8.081,5.334-11.889,8.315c-12.451,9.748-24.023,20.483-34.883,31.964
	c-8.502,8.987-15.957,18.856-22.862,29.092c-6.118,9.064-12.001,18.303-16.328,28.435c-1.535,3.594-0.899,6.11,2.045,8.777
	c5.991,5.421,12.951,5.125,19.921,3.647c14.955-3.172,27.673-10.849,39.292-20.525c4.188-3.488,8.532-6.637,14.307-6.864
	c1.848-0.071,2.738-0.969,2.272-2.989c-1.257-5.452,0.163-10.348,3.247-14.877c1.484-2.179,2.918-4.392,4.365-6.598
	C925.062,103.894,930.646,90.518,930.779,76.051z"/>
<path fill-rule="evenodd" clip-rule="evenodd" d="M1174,9.238c-9.793,7.496-21.131,12.214-32.132,17.432
	c-16.291,7.726-32.526,15.583-49.2,22.514c-7.629,3.169-14.401,8.327-21.81,12.101c-17.408,8.869-34.914,17.548-52.478,26.113
	c-17.459,8.516-35.04,16.779-52.55,25.189c-11.341,5.445-23.341,9.106-36.122,13.819c5.502-9.054,10.183-17.367,13.379-26.368
	c1.182-3.323,2.962-5.039,6.393-6.521c22.906-9.895,45.756-19.921,68.275-30.7c9.966-4.771,20.393-8.643,30.528-13.045
	c17.367-7.542,35.24-14.31,50.239-26.502c4.398-3.575,9.412-6.393,14.157-9.538c4.304-2.855,9.272-3.762,14.222-4.285
	c12.863-1.362,25.569-3.327,37.72-7.999c3.026-1.164,6.147-1.625,9.378-1.388C1174,3.119,1174,6.18,1174,9.238z"/>
<path fill-rule="evenodd" clip-rule="evenodd" d="M386.023,267.211c-24.985,0.133-49.99,1.563-74.997,0.187
	c-11.914-0.655-23.814-0.554-35.758,0.958c-8.619,1.091-17.484,1.025-26.164-0.533c-7.327-1.318-14.706-1.084-22.032-0.604
	c-43.468,2.843-87.008,2.045-130.45,0.853c-28.527-0.785-56.927,0.951-85.388,0.652c-3.721-0.041-5.783-1.179-6.149-5.027
	c-0.258-2.721,0.788-4.33,3.478-4.667c23.493-2.928,45.168-11.979,67.195-19.856c5.253-1.878,10.601-3.281,16.293-2.371
	c1.612,0.259,3.098,0.7,3.728,2.256c3.057,7.551,9.5,9.5,16.589,9.348c13.327-0.293,26.638-1.189,39.959-1.767
	c25.525-1.101,50.793-5.798,76.422-5.444c9.208,0.129,18.257,1.45,27.182,3.6c3.756,0.907,7.384,0.9,11.069-0.176
	c11.185-3.278,22.583-5.588,34.095-7.357c2.663-0.408,5.102-0.207,7.625,1.135c19.791,10.543,40.676,18.331,62.206,24.476
	C375.961,264.307,380.991,265.764,386.023,267.211z"/>
<path fill-rule="evenodd" clip-rule="evenodd" fill="#F26522" d="M930.779,76.051c-0.133,14.466-5.717,27.842-13.892,40.321
	c-1.447,2.206-2.881,4.419-4.365,6.598c-3.084,4.53-4.504,9.426-3.247,14.877c0.466,2.021-0.425,2.918-2.272,2.989
	c-5.774,0.228-10.118,3.376-14.307,6.864c-11.619,9.677-24.337,17.354-39.292,20.525c-6.97,1.478-13.93,1.773-19.921-3.647
	c-2.944-2.667-3.58-5.184-2.045-8.777c4.327-10.132,10.21-19.37,16.328-28.435c6.905-10.235,14.36-20.104,22.862-29.092
	c10.859-11.48,22.432-22.216,34.883-31.964c3.808-2.98,7.562-6.046,11.889-8.315c3.393-1.782,5.981-1.875,8.386,1.858
	C928.876,64.65,931.115,69.563,930.779,76.051z"/>
<text transform="matrix(0.9481 0.3095 -0.3104 0.9506 145.9136 173.291)" fill="#414042" font-family="'Nyala-Regular'" font-size="4.1096">(c) 2016 Yogapage</text>
</svg>
