<svg width="71" height="66" viewBox="0 0 71 66" fill="none" xmlns="http://www.w3.org/2000/svg">
<g id="book" filter="url(#filter0_d)">
<g id="Group">
<path id="Vector" d="M65.0545 17.76C64.5426 17.0794 63.8215 16.5572 62.8921 16.1925C62.9418 17.0436 62.8811 17.7364 62.71 18.2716L51.7212 54.2559C51.5254 54.8878 51.0978 55.3921 50.4392 55.7689C49.7796 56.146 49.0961 56.3344 48.3879 56.3344H14.5788C11.6485 56.3344 9.89055 55.4849 9.30422 53.7823C9.06007 53.1259 9.07238 52.6038 9.34117 52.2148C9.60957 51.8499 10.0735 51.6672 10.7332 51.6672H42.5644C44.8355 51.6672 46.4044 51.2477 47.2714 50.4091C48.1391 49.5705 49.0118 47.7048 49.8904 44.8128L59.9269 11.7809C60.464 9.98233 60.2443 8.4023 59.2673 7.04153C58.2903 5.68077 56.8987 5 55.0915 5H27.2166C26.8992 5 26.2763 5.10906 25.3484 5.32793L25.3848 5.21824C24.701 5.07266 24.1209 5.006 23.6448 5.01762C23.1688 5.03026 22.7291 5.16984 22.3263 5.43763C21.9234 5.70503 21.5996 5.99031 21.3556 6.29398C21.1114 6.59791 20.873 6.98688 20.6412 7.46064C20.4096 7.93505 20.214 8.37268 20.0553 8.77365C19.8966 9.17463 19.7132 9.60025 19.506 10.0504C19.2982 10.5 19.0973 10.8706 18.9017 11.1621C18.7551 11.3566 18.5479 11.6118 18.279 11.9278C18.0107 12.2438 17.7908 12.5234 17.6199 12.7664C17.4491 13.0095 17.3389 13.2282 17.2904 13.4228C17.2419 13.6413 17.2661 13.9634 17.3637 14.389C17.4612 14.814 17.498 15.1236 17.4733 15.3183C17.3757 16.2418 17.0399 17.4143 16.4662 18.8366C15.8926 20.2587 15.3731 21.2859 14.9093 21.9175C14.8117 22.0388 14.5433 22.3124 14.1036 22.7379C13.6639 23.1631 13.3954 23.5334 13.298 23.8494C13.2003 23.9708 13.1941 24.3113 13.2796 24.8702C13.365 25.4295 13.3959 25.8181 13.3713 26.0369C13.2731 26.8635 12.9684 27.9571 12.4554 29.3184C11.9423 30.6793 11.4297 31.7975 10.9167 32.6724C10.8437 32.8181 10.6363 33.0974 10.294 33.511C9.95251 33.9244 9.74454 34.2647 9.67141 34.5313C9.62266 34.7258 9.62907 35.0661 9.68989 35.5521C9.75057 36.0382 9.74454 36.4026 9.67141 36.6455C9.47627 37.5685 9.10985 38.681 8.57253 39.9817C8.03535 41.2814 7.48584 42.3947 6.92377 43.3173C6.77776 43.5607 6.57582 43.8466 6.31974 44.1743C6.06327 44.502 5.86197 44.7879 5.71532 45.0308C5.56893 45.2738 5.47117 45.5289 5.42229 45.7965C5.39791 45.9424 5.43486 46.1793 5.5325 46.5079C5.63 46.8356 5.66682 47.0968 5.64206 47.292C5.61743 47.6319 5.56893 48.082 5.49567 48.6414C5.42229 49.1998 5.38546 49.5275 5.38546 49.6245C4.84828 51.0834 4.8724 52.6269 5.45885 54.2561C6.14268 56.1509 7.35729 57.7499 9.1033 59.05C10.8494 60.3506 12.6623 61 14.5429 61H48.3523C49.939 61 51.4348 60.4712 52.839 59.4145C54.2431 58.357 55.1775 57.0511 55.6407 55.4946L65.7136 22.4636C66.2514 20.7131 66.0319 19.1454 65.0545 17.76ZM26.0808 17.8329L26.8502 15.4993C26.9477 15.1834 27.149 14.91 27.4544 14.6791C27.7597 14.4486 28.0712 14.3328 28.3887 14.3328H50.6599C51.0016 14.3328 51.2456 14.4481 51.3922 14.6791C51.5385 14.9101 51.5635 15.1834 51.466 15.4993L50.6959 17.8329C50.5979 18.149 50.3974 18.4217 50.0913 18.6533C49.7857 18.8838 49.4748 18.9991 49.1575 18.9991H26.8869C26.5449 18.9991 26.3008 18.8841 26.1542 18.6533C26.0077 18.4217 25.9833 18.149 26.0808 17.8329ZM23.0408 27.1664L23.8101 24.8332C23.9076 24.5172 24.1091 24.2438 24.4142 24.0129C24.7196 23.7819 25.0307 23.6666 25.3485 23.6666H47.619C47.961 23.6666 48.2055 23.7816 48.3518 24.0129C48.4981 24.244 48.5226 24.5172 48.4247 24.8332L47.6554 27.1664C47.558 27.4823 47.3565 27.756 47.0514 27.9866C46.7456 28.2176 46.4349 28.3329 46.117 28.3329H23.8465C23.5047 28.3329 23.2606 28.218 23.1142 27.9866C22.9674 27.756 22.9431 27.4823 23.0408 27.1664Z" fill="white"/>
</g>
</g>
<defs>
<filter id="filter0_d" x="0" y="0" width="71" height="66" filterUnits="userSpaceOnUse" color-interpolation-filters="sRGB">
<feFlood flood-opacity="0" result="BackgroundImageFix"/>
<feColorMatrix in="SourceAlpha" type="matrix" values="0 0 0 0 0 0 0 0 0 0 0 0 0 0 0 0 0 0 127 0"/>
<feOffset/>
<feGaussianBlur stdDeviation="2.5"/>
<feColorMatrix type="matrix" values="0 0 0 0 0 0 0 0 0 0 0 0 0 0 0 0 0 0 0.35 0"/>
<feBlend mode="normal" in2="BackgroundImageFix" result="effect1_dropShadow"/>
<feBlend mode="normal" in="SourceGraphic" in2="effect1_dropShadow" result="shape"/>
</filter>
</defs>
</svg>
